<svg width="18" height="12" viewBox="0 0 18 12" fill="none" xmlns="http://www.w3.org/2000/svg">
<path fill-rule="evenodd" clip-rule="evenodd" d="M15.4916 7.38369C16.0886 7.96663 16.7188 8.5151 17.2544 9.15684C17.4909 9.44201 17.7149 9.73629 17.8862 10.0672C18.129 10.5377 17.9091 11.0554 17.4873 11.0835L14.865 11.0823C14.1886 11.1385 13.6491 10.8662 13.1954 10.4038C12.8324 10.0339 12.4962 9.64037 12.1471 9.25809C12.0039 9.10184 11.8541 8.95481 11.6752 8.8386C11.3172 8.60624 11.0065 8.67738 10.8019 9.05074C10.5935 9.43048 10.5463 9.85097 10.5258 10.2742C10.4977 10.8917 10.3111 11.054 9.69083 11.0823C8.36525 11.1448 7.10722 10.9442 5.93854 10.2755C4.9082 9.68603 4.10921 8.8538 3.41377 7.91163C2.05975 6.07704 1.02284 4.06111 0.0909061 1.98871C-0.118865 1.5218 0.0345452 1.27116 0.549718 1.26229C1.40519 1.24567 2.26053 1.24686 3.11701 1.26111C3.46469 1.26619 3.69487 1.46562 3.82912 1.79408C4.29195 2.93212 4.85828 4.01487 5.56915 5.01848C5.75846 5.28568 5.95149 5.55287 6.22638 5.74094C6.53048 5.94917 6.76201 5.88016 6.90507 5.5414C6.99586 5.3266 7.0356 5.09524 7.05606 4.86519C7.12384 4.07371 7.13277 3.28359 7.01389 2.4949C6.94091 2.00267 6.66366 1.68402 6.1725 1.59088C5.92186 1.54339 5.95918 1.45012 6.08054 1.30706C6.29131 1.06033 6.48955 0.906738 6.88473 0.906738H9.84832C10.3149 0.99882 10.4185 1.20841 10.4824 1.67787L10.4849 4.96981C10.4798 5.15155 10.5757 5.69085 10.903 5.81114C11.165 5.89678 11.3377 5.68718 11.4949 5.52106C12.2045 4.76796 12.7109 3.87796 13.1633 2.95637C13.3641 2.55114 13.5367 2.1303 13.704 1.70981C13.828 1.39778 14.0225 1.24425 14.374 1.25105L17.2263 1.2536C17.3108 1.2536 17.3964 1.25484 17.4783 1.26886C17.959 1.35077 18.0907 1.55752 17.9422 2.02686C17.7083 2.76322 17.2532 3.37686 16.8083 3.99334C16.3326 4.65151 15.8239 5.28716 15.3522 5.94923C14.9188 6.55383 14.9532 6.85858 15.4916 7.38369Z" fill="white"/>
</svg>
